"línea","IPA ","Transcripción a TNR ","Traducción libre (Esp)","Traducción literal (Esp) ","Transcripción morfema por morfema (TNR)","Glosa morfema por morfema","comentarios","fuente","carga ","control"
"1.0","tSilipe loBa laojana ","tSilipe loba laojana ","Felipe, concubino de Laureana, ","","tSilipe l-oBa laojana ","Felipe 3Pos-concubino Laureana","","Texto 1","C","C"
"2.0","ve ka naGaa niSitake ke/e nai","ve ka naGaa niSitake ke?e nai ","un día tenía deseo de comer sábalo,","","ve ka naGaa n-Sit-ta-ake Ø-ke?e nai","Ex Det día 3sg-desear-AspDur-Des 3sg-comer sábalo","","Texto 1","C","C"
"3.0","nak tSilipe nete'e øakitaGasomo keda ka'im","nak tSilipe nete’e ñakitaGasomo keda ka’im ","dijo Felipe, mañana voy a probar suerte allá en el bañado,","","Ø-nak tSilipe nete’e i-n-akit-aGasom-o ke-da kahim","3-decir Felipe Adv 1-Med-procurar-Dir-AspPros Obl-Det bañado","","Texto 1","C","C"
"4.0","ka ve øokowaGa/a","ka ve ñokouaGa?a","si tengo suerte (o bendición) (si pesco)","","ka ve i-n-kouaGa?a","Det Ex 1-Med-tener.suerte","","Texto 1","C","C"
"5.0","saBotako øaatik kotaiolek ","saBotako ñaatik kotaiolek ","voy a llevar mi agradecimiento (voy a dar gracias) a Dios.","","s-aBotak-o i-n-aatik  kotaiolek ","1sg-llevar-AspPros 1-Med-agradecer dios","","Texto 1","C","C"
"6.0","seBalaGano laøaGala perto","seBalaGano lañaGala perto"," “Le voy a pedir prestado el montado a Ruperto”","","s-Bala-Gan-o l-ñaGala Perto","1sg-pedir.prestado-Detr-AspPros 3Pos-montado Ruperto","","Texto 1","C","C"
"7.0","kenaa inoGontani raHasa","kenaa inoGontani rahasa","y cuando se escondía el sol,","","kenaa i-noGon-ta-ni rahasa","conj 3sg-esconder-AspDur-Dir sol","","Texto 1","C","C"
"8.0","kaBaqanata da laBo [perto] ","kaBaqanata da laBo [perto] ","con trancos largos, se cruzó a la casa de Ruperto.","","Ø-kaBaGak-ta da laBo [perto] ","3sg-dar.pasos-AspDur Det 3Pos-casa [Ruperto]","","Texto 1","C","C"
"9.0","nua SipiaGa laøaGalate perto napotaBalo ke ni qopaRit","nua SipiaGa  lañaGalate  perto napotaBalo  ke  ni qoparit","Los caballos montados de Ruperto estaban encerrados en el corral, ","","nua SipiaG-a l-añaGalat-e  perto n-apotaa-lo ke ni qopaq-git","Det.Pl  caballo-Pl 3sg-montado-Pl  Ruperto  3sg-estar.encerrado-??  Obl Det palo-Dir(enfrentado)","","Texto 1","C","C"
"10.0","la perto la tSilipe nikinta/ ","la perto la  tSilipe  nikinta?"," “Hola Ruperto”, “Hola Felipe”, se saludaron","","la perto la  tSilipe Ø-n-ikin-ta? ","hola  Ruperto hola Felipe 3-Med-saludar-Rec","","Texto 1","C","C"
"11.0","ne RovenaGanaGaÄi RenataGan perto","ne  rovenaGanaGagi  renataGan  perto","“¿en qué te puedo ser útil?” pregunta Ruperto.","","ne r-oven-aGan-aGa-gi r-nata-Gan perto","Inter 3sg-trabajar-Detr-??-Dir  3sg-preguntar-Detr  Ruperto","","Texto 1","C","C"
"12.0","saBalaGantak qaøaGalati ","saBalaGantak qañaGalati "," “Te vengo a pedir prestado un montado, ","","s-Bala-Gan-tak qa-ñaGala-i ","1sg-pedir.prestado-AspProg  Pos-montado-2sg","","Texto 1","C","C"
"13.0","neteeH Sim sainaGan nai ","neteeh  Sim sainaGan  nai ","mañana quiero ir a fijar sábalo” ","","neteeh Sim s-aina-Gan nai ","Adv  MM  1sg-pescar.con.fija-Detr  sábalo","","Texto 1","C","C"
"14.0","RopilqataGan tSilipe","ropilqataGan  tSilipe","responde Felipe.","","r-pilqa-ta-Gan tSilipe","3sg-responder-AspDur-Detr Felipe","","Texto 1","C","C"
"15.0","axaa nak perto ÄatSo'o nintaRe ÄaRantido ","axaa nak  perto gatSo’o  nintare  garantido ","“Sí” dijo Ruperto, “vas a llevar este (le señala a uno de estos montados) Garantido ","","axaa Ø-nak perto gat-i-o’-o nintare garantido ","Afir  3sg-decir  Ruperto llevar-2-llevar-AspPros  Dem(señalando) Garantido","","Texto 1","C","C"
"16.0","tSalo kesaankaik imakatiÄini nak tSilipe","tSalo kesaankaik imakatigini  nak tSilipe","es muy resistente”. “Está bien” dijo Felipe, ","","tSalo kesaank-aik i-makati-gini Ø-nak tSilipe","Cuant  ser.fuerte-Atr  3sg-estar.bien-??  3sg-decir  Felipe","","Texto 1","C","C"
"17.0","nete'e ma nete'etoki soHuelko","nete’e  ma nete’etoki sohuelko "," “mañana bien tempranito lo voy a ensillar (vestir) y ","","netee ma nete’et-oki s-ooBelk-o","Adv  ??  mañana-Dim.m  1sg-vestir-AspPros","","Texto 1","C","C"
"18.0","kamiH øakito i ÄatSo'o","kamih  ñakito  i gatSo’o","vos vení a buscarlo y llevalo”","","kamih i-n-kato-i-o i gat-i-o’-o","Pro2  1-Med-venir.a.buscar-2-AspPros conj llevar-2-llevar-AspPros","","Texto 1","C","C"
"19.0","nete'etoki nelaGaSim tSilipe","nete’etoki nelaGaSim tSilipe","Tempranito se levantó Felipe,","","nete’et-oki n-laGa-shim tSilipe","mañana-Dim.m 3sg-levantarse-Dir Felipe","","Texto 1","C","C"
"20.0","neet loÄeteÄet kenaa ime neetaGak ketaa Äarantido","neet logeteget kenaa  ime neetaGak  ketaa garantido","toma mate y después al terminar la mateada (de tomar) se fue en busca de Garantido","","Ø-neet logeteget  kenaa  ime l-neet-aGak ke-ta  garantido ","3sg-tomar  mate  conj MM  3Pos-tomar-NmzEv ExDinámico-AspDur  Garantido","","Texto 1","C","C"
"21.0","leenoBetetalek naBeÄet laBo","leenoBetetalek naBegeta laBo","ya estaba ensillado y se lo trajo a su casa,","","leen-oBete-ta-lek n-aBeget-ta l-aBo","??-vestir-AspDur-Dir 3sg-traer-ASpDur 3Pos-casa","","Texto 1","C","C"
"22.0","inaGaSim ´oGoki RenoSim ","inaGaSim LoGoki renoSim ","le puso arriba (subió) sus maletas, montó, ","","i-naGa-Sim LoGoki r-eno-Sim ","3sg-poner.arriba-Dir maletas 3sg-montar-Dir","","Texto 1","C","C"
"23.0","iakono/ lowik nandetani kidi lava ReloqoBek","iakono? lowik nandetani kidi lava reloqoBek","tomó la fija que estaba clavada en el suelo y partió.","","i-akon-o? l-owik n-ande-ta-ni ke-di lava r-eloqoBek","3sg-agarrar-Nar  3Pos-fija 3sg-Med-clavar-AspDur-Dir Obl-Det tierra 3sg-partir","","Texto 1","C","C"
"24.0","me tona ieke ","tomó la fija que estaba clavada en el suelo y partió.","la abuela Petrona y ","","me tona ieke ","abuela Petrona conj","","Texto 1","C","C"
"25.0","laojana Ra'isapeÄe tSilipe","me tona ieke ","Laureana su esposa (o concubina) lo miraban (desde lejos) de reojo a Felipe ","","laojana r-a’isa-pege tSilipe","Laureana 3sg-mirar-Pl Felipe","","Texto 1","C","C"
"26.0","nak me tona iakonitiÄini so jale","laojana ra’isapege tSilipe","y dijo la abuela Petrona “va bien agarrado el hombre”","","Ø-nak me tona i-akon-tigi-ni so jale","3sg-decir  abuela Petrona 3sg-agarrar-Proceso-Dir  Det hombre","","Texto 1","C","C"
"27.0","laBirni aBit noBiSim tSilipe ","nak me tona iakonitigini so jale","a la media tarde llega de vuelta Felipe,","","laBirni aBit n-oBi-Sim tSilipe ","media  tarde 3sg-llegar-Dir Felipe","","Texto 1","C","C"
"28.0","nenoqotiÄini Äarantido ","laBirni aBit noBiSim tSilipe ","(recién) transpirado Garantido","","n-noqo-tigi-ni garantido ","3sg-transpirar-Proceso-Dir garantido","","Texto 1","C","C"
"29.0","noqata ´oGoki ke nai Renotek tSilipe","nenoqotigini garantido ","las maletas llenas de sábalo, desmonta Felipe, ","","n-oqata LoGoki ke nai r-not-lek tSilipe","3sg-estar.lleno  maletas  Obl  sábalos 3sg-bajar-Loc Felipe","","Texto 1","C","C"
"30.0","naka/ni ´oÄoki  iliHini kindi akapisat","noqata LoGoki ke nai renotek tSilipe","tira la maleta, las coloca en el pastizal ","","n-aka?-ni Logoki i-lihi-ni ke-di akapi-sat","3sg-tirar-Dim maleta  3sg-poner-Dir Obl-Det  pasto-Col","","Texto 1","C","C"
"31.0","nak keda loBa daøake lotoli laite","naka?ni Logoki ilihini kindi akapisat","le dice a su concubina “Buscame una bolsa para poner ","","Ø-nak ke-da l-oBa dan-i-ake  lot-oli  laite","3sg-decir  Obl-Det 3Pos-concubino buscar-2sg-Des  bolsa-Dim para.poner.dentro","","Texto 1","C","C"
"32.0","nua iame ke perto ","nak keda loBa dañake lotoli laite","lo que voy a dar a Ruperto,","","nua i-ann-e ke perto ","Det-Pl  3sg-dar-?? Obl  Ruperto","","Texto 1","C","C"
"33.0","kuanake paÄek lekaiÄo ieke loio ","nua iame ke perto ","los más grande y los más gordo” ","","kuanake   pagek lekaigo  ieke loio ","Pro3.Pl  Cuant 3Pos-tamaño conj 3Pos-gordura","","Texto 1","C","C"
"34.0","iane laseBete laøaGala perto","iane laseBete lañaGala perto","Felipe le dio como parte de pago del montado de Ruperto.","","i-ann-e  l-aseBete l-ñaGala  perto","3sg-dar-??  3Pos-valor  3Pos-montado  Ruperto","","Texto 1","C","C"
"35.0","øaatik aSiÄo loBo","ñaatik aSigo loBo","Agradece y vuelve a su rancho.","","i-n-aatik Ø-aSigo l-Bo","1-Med-agradecer  3sg-volver  3Pos-casa","","Texto 1","C","C"
